Library/Bee/artifacts/mvdfrm/UnityEditor.UI.ref.dll_BD0E97F52A0DF729.mvfrm
Library/Bee/artifacts/mvdfrm/UnityEngine.UI.ref.dll_79746E5030301F94.mvfrm
Library/Bee/artifacts/mvdfrm/UnityEditor.Graphs.dll_751D4997512E220E.mvfrm
Library/Bee/artifacts/mvdfrm/UnityEditor.CoreModule.dll_0E0E445C8A8A73DC.mvfrm
Library/Bee/artifacts/mvdfrm/UnityEditor.DeviceSimulatorModule.dll_3D5EEB96F5F5A4A5.mvfrm
Library/Bee/artifacts/mvdfrm/UnityEditor.DiagnosticsModule.dll_D0682932EA88A5B3.mvfrm
Library/Bee/artifacts/mvdfrm/UnityEditor.dll_DED654ECFA116EF9.mvfrm
Library/Bee/artifacts/mvdfrm/UnityEditor.EditorToolbarModule.dll_D096BC35BDBE2FD5.mvfrm
Library/Bee/artifacts/mvdfrm/UnityEditor.GraphViewModule.dll_F408DD319AB9912A.mvfrm
Library/Bee/artifacts/mvdfrm/UnityEditor.PresetsUIModule.dll_AF6F16139D11E92F.mvfrm
Library/Bee/artifacts/mvdfrm/UnityEditor.QuickSearchModule.dll_5B77AA40435FA20C.mvfrm
Library/Bee/artifacts/mvdfrm/UnityEditor.SceneTemplateModule.dll_F4362CF3BCAADA0D.mvfrm
Library/Bee/artifacts/mvdfrm/UnityEditor.SceneViewModule.dll_32B8C0398FDC5E38.mvfrm
Library/Bee/artifacts/mvdfrm/UnityEditor.TextCoreFontEngineModule.dll_F0011034FBB23DDA.mvfrm
Library/Bee/artifacts/mvdfrm/UnityEditor.TextCoreTextEngineModule.dll_37E946A68B35F6F8.mvfrm
Library/Bee/artifacts/mvdfrm/UnityEditor.UIBuilderModule.dll_48918A4E0D720A5E.mvfrm
Library/Bee/artifacts/mvdfrm/UnityEditor.UIElementsModule.dll_32388CF30DC10D98.mvfrm
Library/Bee/artifacts/mvdfrm/UnityEditor.UIElementsSamplesModule.dll_26685BB7E409F555.mvfrm
Library/Bee/artifacts/mvdfrm/UnityEditor.UnityConnectModule.dll_92B9A7E7348D1092.mvfrm
Library/Bee/artifacts/mvdfrm/UnityEngine.AccessibilityModule.dll_26DB988ABD2101AA.mvfrm
Library/Bee/artifacts/mvdfrm/UnityEngine.AIModule.dll_D50159E8C0025EB0.mvfrm
Library/Bee/artifacts/mvdfrm/UnityEngine.AndroidJNIModule.dll_B08175C656E07C6E.mvfrm
Library/Bee/artifacts/mvdfrm/UnityEngine.AnimationModule.dll_C28E595A751665D0.mvfrm
Library/Bee/artifacts/mvdfrm/UnityEngine.ARModule.dll_8E741EEC1D1FBD79.mvfrm
Library/Bee/artifacts/mvdfrm/UnityEngine.AssetBundleModule.dll_9F60DD31A5C656FE.mvfrm
Library/Bee/artifacts/mvdfrm/UnityEngine.AudioModule.dll_2E009E91D409D2C2.mvfrm
Library/Bee/artifacts/mvdfrm/UnityEngine.ClothModule.dll_94E8FB8CAE26B1A6.mvfrm
Library/Bee/artifacts/mvdfrm/UnityEngine.ClusterInputModule.dll_12561CFCE614E358.mvfrm
Library/Bee/artifacts/mvdfrm/UnityEngine.ClusterRendererModule.dll_430BAE0865B0B229.mvfrm
Library/Bee/artifacts/mvdfrm/UnityEngine.ContentLoadModule.dll_387736727448FEEB.mvfrm
Library/Bee/artifacts/mvdfrm/UnityEngine.CoreModule.dll_312F17AF328FDF07.mvfrm
Library/Bee/artifacts/mvdfrm/UnityEngine.CrashReportingModule.dll_AB8AB1DBBEDA9CFF.mvfrm
Library/Bee/artifacts/mvdfrm/UnityEngine.DirectorModule.dll_34E4C32D723836E4.mvfrm
Library/Bee/artifacts/mvdfrm/UnityEngine.dll_117A9BC55884FBDE.mvfrm
Library/Bee/artifacts/mvdfrm/UnityEngine.DSPGraphModule.dll_3A362496E4990805.mvfrm
Library/Bee/artifacts/mvdfrm/UnityEngine.GameCenterModule.dll_DACEBFE11D216D5F.mvfrm
Library/Bee/artifacts/mvdfrm/UnityEngine.GIModule.dll_6D3DA2F65BB146CA.mvfrm
Library/Bee/artifacts/mvdfrm/UnityEngine.GridModule.dll_0EA0339D4AE474FE.mvfrm
Library/Bee/artifacts/mvdfrm/UnityEngine.HotReloadModule.dll_43D7176050498152.mvfrm
Library/Bee/artifacts/mvdfrm/UnityEngine.ImageConversionModule.dll_AEFDABB8E7D56A1D.mvfrm
Library/Bee/artifacts/mvdfrm/UnityEngine.IMGUIModule.dll_66603DF89A3B66A3.mvfrm
Library/Bee/artifacts/mvdfrm/UnityEngine.InputLegacyModule.dll_30A5F8503DB80CEF.mvfrm
Library/Bee/artifacts/mvdfrm/UnityEngine.InputModule.dll_947666424A41F766.mvfrm
Library/Bee/artifacts/mvdfrm/UnityEngine.JSONSerializeModule.dll_86F321C6BC5C6234.mvfrm
Library/Bee/artifacts/mvdfrm/UnityEngine.LocalizationModule.dll_50A2E74F7D90D651.mvfrm
Library/Bee/artifacts/mvdfrm/UnityEngine.ParticleSystemModule.dll_FE9CFB282CEC288D.mvfrm
Library/Bee/artifacts/mvdfrm/UnityEngine.PerformanceReportingModule.dll_75B0935CABAA3AC6.mvfrm
Library/Bee/artifacts/mvdfrm/UnityEngine.Physics2DModule.dll_0F34494B16135D65.mvfrm
Library/Bee/artifacts/mvdfrm/UnityEngine.PhysicsModule.dll_734E498C586E49D3.mvfrm
Library/Bee/artifacts/mvdfrm/UnityEngine.ProfilerModule.dll_672AFC640B91BDF1.mvfrm
Library/Bee/artifacts/mvdfrm/UnityEngine.PropertiesModule.dll_0809FF1F900CD19B.mvfrm
Library/Bee/artifacts/mvdfrm/UnityEngine.RuntimeInitializeOnLoadManagerInitializerModule.dll_B81B84621D47182E.mvfrm
Library/Bee/artifacts/mvdfrm/UnityEngine.ScreenCaptureModule.dll_A0DACF4BD0C88E96.mvfrm
Library/Bee/artifacts/mvdfrm/UnityEngine.SharedInternalsModule.dll_330EEA8E5F03656D.mvfrm
Library/Bee/artifacts/mvdfrm/UnityEngine.SpriteMaskModule.dll_C3FB32713E9102D9.mvfrm
Library/Bee/artifacts/mvdfrm/UnityEngine.SpriteShapeModule.dll_B8C20A8C5B688F08.mvfrm
Library/Bee/artifacts/mvdfrm/UnityEngine.StreamingModule.dll_772346AAC49E1D0E.mvfrm
Library/Bee/artifacts/mvdfrm/UnityEngine.SubstanceModule.dll_53CE5AF40FF11B1C.mvfrm
Library/Bee/artifacts/mvdfrm/UnityEngine.SubsystemsModule.dll_2EA898D30CD8EAEC.mvfrm
Library/Bee/artifacts/mvdfrm/UnityEngine.TerrainModule.dll_8D94C4FB2E2C92C1.mvfrm
Library/Bee/artifacts/mvdfrm/UnityEngine.TerrainPhysicsModule.dll_FF17A3FB462F231A.mvfrm
Library/Bee/artifacts/mvdfrm/UnityEngine.TextCoreFontEngineModule.dll_6E608B880EAFFCA5.mvfrm
Library/Bee/artifacts/mvdfrm/UnityEngine.TextCoreTextEngineModule.dll_B648C1F99E33B5C3.mvfrm
Library/Bee/artifacts/mvdfrm/UnityEngine.TextRenderingModule.dll_CA1A415688000E8B.mvfrm
Library/Bee/artifacts/mvdfrm/UnityEngine.TilemapModule.dll_2C912C7C45E973CA.mvfrm
Library/Bee/artifacts/mvdfrm/UnityEngine.TLSModule.dll_BDBEFCD45ED16DE7.mvfrm
Library/Bee/artifacts/mvdfrm/UnityEngine.UIElementsModule.dll_32E6FA3B100526E3.mvfrm
Library/Bee/artifacts/mvdfrm/UnityEngine.UIModule.dll_D074F8161C49645C.mvfrm
Library/Bee/artifacts/mvdfrm/UnityEngine.UmbraModule.dll_A8D54AAA61307E35.mvfrm
Library/Bee/artifacts/mvdfrm/UnityEngine.UnityAnalyticsCommonModule.dll_10EF50A0C592D924.mvfrm
Library/Bee/artifacts/mvdfrm/UnityEngine.UnityAnalyticsModule.dll_1E3C6BF1D9137A89.mvfrm
Library/Bee/artifacts/mvdfrm/UnityEngine.UnityConnectModule.dll_80192BF62F15113D.mvfrm
Library/Bee/artifacts/mvdfrm/UnityEngine.UnityCurlModule.dll_F5AAFA8BE52A57BD.mvfrm
Library/Bee/artifacts/mvdfrm/UnityEngine.UnityTestProtocolModule.dll_E22B11AA3E054AAB.mvfrm
Library/Bee/artifacts/mvdfrm/UnityEngine.UnityWebRequestAssetBundleModule.dll_A372BB6ABBF2DC1A.mvfrm
Library/Bee/artifacts/mvdfrm/UnityEngine.UnityWebRequestAudioModule.dll_EDACE73B3215055E.mvfrm
Library/Bee/artifacts/mvdfrm/UnityEngine.UnityWebRequestModule.dll_C09CB362F2CA049C.mvfrm
Library/Bee/artifacts/mvdfrm/UnityEngine.UnityWebRequestTextureModule.dll_377F882828D512F3.mvfrm
Library/Bee/artifacts/mvdfrm/UnityEngine.UnityWebRequestWWWModule.dll_810B07558DF3722F.mvfrm
Library/Bee/artifacts/mvdfrm/UnityEngine.VehiclesModule.dll_ACA7BCACEC62067F.mvfrm
Library/Bee/artifacts/mvdfrm/UnityEngine.VFXModule.dll_3E9D9543353ED754.mvfrm
Library/Bee/artifacts/mvdfrm/UnityEngine.VideoModule.dll_530A22FC969BEE67.mvfrm
Library/Bee/artifacts/mvdfrm/UnityEngine.VirtualTexturingModule.dll_AFFA25405B5816E5.mvfrm
Library/Bee/artifacts/mvdfrm/UnityEngine.VRModule.dll_23471E9BBE03E9D4.mvfrm
Library/Bee/artifacts/mvdfrm/UnityEngine.WindModule.dll_A77DF2D7C3C65D70.mvfrm
Library/Bee/artifacts/mvdfrm/UnityEngine.XRModule.dll_5605E1A0473E3732.mvfrm
Library/Bee/artifacts/mvdfrm/UnityEditor.OSXStandalone.Extensions.dll_072CE0D6B4B94B2F.mvfrm
Library/Bee/artifacts/mvdfrm/Unity.Burst.Cecil.dll_026650DBE8F13ABB.mvfrm
Library/Bee/artifacts/mvdfrm/Unity.Burst.Cecil.Mdb.dll_19C47C6DA88DD4B8.mvfrm
Library/Bee/artifacts/mvdfrm/Unity.Burst.Cecil.Pdb.dll_3116F4DD2742D63B.mvfrm
Library/Bee/artifacts/mvdfrm/Unity.Burst.Cecil.Rocks.dll_2E9690A4053F3BBB.mvfrm
Library/Bee/artifacts/mvdfrm/Unity.Plastic.Antlr3.Runtime.dll_B856FC36A1C2A55D.mvfrm
Library/Bee/artifacts/mvdfrm/Unity.Plastic.Newtonsoft.Json.dll_5916A6F7AACD8F88.mvfrm
Library/Bee/artifacts/mvdfrm/Unity.Collections.LowLevel.ILSupport.dll_2E40CE80E145E521.mvfrm
Library/Bee/artifacts/mvdfrm/Unity.VisualScripting.IonicZip.dll_3753AE2E22DD17B6.mvfrm
Library/Bee/artifacts/mvdfrm/Unity.VisualScripting.YamlDotNet.dll_B9EB2E0105A28BA6.mvfrm
Library/Bee/artifacts/mvdfrm/Unity.VisualScripting.TextureAssets.dll_51095754C66FE99E.mvfrm
Library/Bee/artifacts/mvdfrm/Unity.VisualScripting.Antlr3.Runtime.dll_6B5854E2366B9BC5.mvfrm